{
    "logbymobile": {
        "code": "00000",
        "msg": "ok",
        "token": "eyJ0eXAiOiJKV1QiLCJhbGciOiJIUzI1NiIsImp0aSI6IjRmMWcyM2ExMmFhIn0.eyJpc3MiOiJhcGkuMTkxMi5jb20iLCJhdWQiOiJhcGlfMTkxMl9hcHAiLCJqdGkiOiI0ZjFnMjNhMTJhYSIsImlhdCI6MTYzNzM3ODA0OCwibmJmIjoxNjM3Mzc4MDQ4LCJleHAiOjE2MzczODE2NDgsInVpZCI6Mjh9.0gvZM68w0liRJ3lhFNFeX0oP8nJYfZ9I6OXJDwPalW4",
        "data": {
            "user_id": 28,
            "username": "xuxu",
            "password": "14e1b600b1fd579f47433b88e8d85291",
            "mobile": "13000000000",
            "email": null,
            "openid": "oTxJh5COk3qkhNCpxYZyHo0ll7jc",
            "nickName": "XuXiangQiao",
            "gender": 0,
            "country": null,
            "province": null,
            "city": null,
            "avatarUrl": "https://thirdwx.qlogo.cn/mmopen/vi_32/Q0j4TwGTfTJEjsOg5wc4Xp9ict08vsQEBEEkBMpv1PJ6ZNW1O2uhDiaibwXibhCPpvLibib0oU94A7nqArdNz6tthibnw/132",
            "addtime": 1636771973,
            "refer": 1
        }
    },
    "hothospital": {
        "code": "00000",
        "msg": "ok",
        "data": {
            "current_page": 1,
            "total": 9,
            "data": [
                {
                    "chain_id": 1,
                    "hospital_id": 1,
                    "chain_name": "慈铭体检海淀分院11",
                    "chain_no": "1",
                    "is_use": 0,
                    "privice": 130000,
                    "city": 130200,
                    "disct": 130202005,
                    "address": "学清路111",
                    "thumb": "https://ss3.bdstatic.com/70cFv8Sh_Q1YnxGkpoWK1HF6hhy/it/u=2530869004,2317526421&fm=26&gp=0.jpg",
                    "type": 2,
                    "attr": 1,
                    "tel": "0635-5436601",
                    "coordinate": "100000,1110000",
                    "addtime": 1622691177,
                    "is_hot": 1,
                    "countcompose": 9
                },
                {
                    "chain_id": 1,
                    "hospital_id": 1,
                    "chain_name": "爱康体检海淀分院",
                    "chain_no": "1",
                    "is_use": 0,
                    "privice": 130000,
                    "city": 130200,
                    "disct": 130202005,
                    "address": "学清路",
                    "thumb": "https://ss3.bdstatic.com/70cFv8Sh_Q1YnxGkpoWK1HF6hhy/it/u=2530869004,2317526421&fm=26&gp=0.jpg",
                    "type": 2,
                    "attr": 1,
                    "tel": "0635-5436601",
                    "coordinate": "100000,1110000",
                    "addtime": 1622691177,
                    "is_hot": 1,
                    "countcompose": 9
                },
                {
                    "chain_id": 1,
                    "hospital_id": 1,
                    "chain_name": "慈铭体检昌平区分院",
                    "chain_no": "1",
                    "is_use": 0,
                    "privice": 130000,
                    "city": 130200,
                    "disct": 130202005,
                    "address": "学清路",
                    "thumb": "https://ss3.bdstatic.com/70cFv8Sh_Q1YnxGkpoWK1HF6hhy/it/u=2530869004,2317526421&fm=26&gp=0.jpg",
                    "type": 2,
                    "attr": 1,
                    "tel": "0635-5436601",
                    "coordinate": "100000,1110000",
                    "addtime": 1622691177,
                    "is_hot": 1,
                    "countcompose": 9
                }
            ]
        }
    },
    "hotcompose": {
        "code": "00000",
        "msg": "ok",
        "data": {
            "current_page": 1,
            "total": 9,
            "data": [
                {
                    "compose_id": 11,
                    "compose_name": "内科",
                    "compose_no": "TCXM202106050339276955",
                    "is_use": 1,
                    "label": "5,6",
                    "expiretime": 1660089600,
                    "oldprice": "788.00",
                    "price": "488.00",
                    "desc": "消化内科",
                    "privice": 130000,
                    "city": 130200,
                    "disct": null,
                    "hospital_id": 1,
                    "chain_id": "1,2",
                    "items": "1,2",
                    "addtime": 1622864367,
                    "rules": "消化科专用",
                    "note": null,
                    "thumb": null,
                    "is_hot": 1
                },
                {
                    "compose_id": 10,
                    "compose_name": "女性体检豪华套餐大减价",
                    "compose_no": "TJXM202105190933041828",
                    "is_use": 2,
                    "label": "2,3",
                    "expiretime": 1665360000,
                    "oldprice": "18999.00",
                    "price": "999.00",
                    "desc": "关注女性健康,维护社会和平",
                    "privice": 110000,
                    "city": 110100,
                    "disct": 110114,
                    "hospital_id": 1,
                    "chain_id": "1,2",
                    "items": "1,2,3",
                    "addtime": 1621416784,
                    "rules": null,
                    "note": null,
                    "thumb": null,
                    "is_hot": 1
                },
                {
                    "compose_id": 10,
                    "compose_name": "女性体检豪华套餐大减价",
                    "compose_no": "TJXM202105190933041828",
                    "is_use": 2,
                    "label": "2,3",
                    "expiretime": 1665360000,
                    "oldprice": "18999.00",
                    "price": "999.00",
                    "desc": "关注女性健康,维护社会和平",
                    "privice": 110000,
                    "city": 110100,
                    "disct": 110114,
                    "hospital_id": 1,
                    "chain_id": "1,2",
                    "items": "1,2,3",
                    "addtime": 1621416784,
                    "rules": null,
                    "note": null,
                    "thumb": null,
                    "is_hot": 1
                }
            ]
        }
    },
    "hospitalList": {
        "code": "00000",
        "msg": "ok",
        "data": {
            "current_page": 1,
            "total": 9,
            "data": [
                {
                    "chain_id": 1,
                    "hospital_id": 1,
                    "chain_name": "慈铭体检海淀分院11",
                    "chain_no": "1",
                    "is_use": 0,
                    "privice": 130000,
                    "city": 130200,
                    "disct": 130202005,
                    "address": "学清路111",
                    "thumb": "https://ss3.bdstatic.com/70cFv8Sh_Q1YnxGkpoWK1HF6hhy/it/u=2530869004,2317526421&fm=26&gp=0.jpg",
                    "type": 2,
                    "attr": 1,
                    "tel": "0635-5436601",
                    "coordinate": "100000,1110000",
                    "addtime": 1622691177,
                    "is_hot": 1,
                    "countcompose": 9
                },
                {
                    "chain_id": 1,
                    "hospital_id": 1,
                    "chain_name": "爱康体检海淀分院",
                    "chain_no": "1",
                    "is_use": 0,
                    "privice": 130000,
                    "city": 130200,
                    "disct": 130202005,
                    "address": "学清路",
                    "thumb": "https://ss3.bdstatic.com/70cFv8Sh_Q1YnxGkpoWK1HF6hhy/it/u=2530869004,2317526421&fm=26&gp=0.jpg",
                    "type": 2,
                    "attr": 1,
                    "tel": "0635-5436601",
                    "coordinate": "100000,1110000",
                    "addtime": 1622691177,
                    "is_hot": 1,
                    "countcompose": 9
                },
                {
                    "chain_id": 1,
                    "hospital_id": 1,
                    "chain_name": "慈铭体检昌平区分院",
                    "chain_no": "1",
                    "is_use": 0,
                    "privice": 130000,
                    "city": 130200,
                    "disct": 130202005,
                    "address": "学清路",
                    "thumb": "https://ss3.bdstatic.com/70cFv8Sh_Q1YnxGkpoWK1HF6hhy/it/u=2530869004,2317526421&fm=26&gp=0.jpg",
                    "type": 2,
                    "attr": 1,
                    "tel": "0635-5436601",
                    "coordinate": "100000,1110000",
                    "addtime": 1622691177,
                    "is_hot": 1,
                    "countcompose": 9
                },
                {
                    "chain_id": 1,
                    "hospital_id": 1,
                    "chain_name": "慈铭体检海淀分院11",
                    "chain_no": "1",
                    "is_use": 0,
                    "privice": 130000,
                    "city": 130200,
                    "disct": 130202005,
                    "address": "学清路111",
                    "thumb": "https://ss3.bdstatic.com/70cFv8Sh_Q1YnxGkpoWK1HF6hhy/it/u=2530869004,2317526421&fm=26&gp=0.jpg",
                    "type": 2,
                    "attr": 1,
                    "tel": "0635-5436601",
                    "coordinate": "100000,1110000",
                    "addtime": 1622691177,
                    "is_hot": 1,
                    "countcompose": 9
                },
                {
                    "chain_id": 1,
                    "hospital_id": 1,
                    "chain_name": "爱康体检海淀分院",
                    "chain_no": "1",
                    "is_use": 0,
                    "privice": 130000,
                    "city": 130200,
                    "disct": 130202005,
                    "address": "学清路",
                    "thumb": "https://ss3.bdstatic.com/70cFv8Sh_Q1YnxGkpoWK1HF6hhy/it/u=2530869004,2317526421&fm=26&gp=0.jpg",
                    "type": 2,
                    "attr": 1,
                    "tel": "0635-5436601",
                    "coordinate": "100000,1110000",
                    "addtime": 1622691177,
                    "is_hot": 1,
                    "countcompose": 9
                }
            ]
        }
    },
    "composeList": {
        "code": "00000",
        "msg": "ok",
        "data": {
            "current_page": 1,
            "total": 9,
            "data": [
                {
                    "compose_id": 11,
                    "compose_name": "内科",
                    "compose_no": "TCXM202106050339276955",
                    "is_use": 1,
                    "label": "5,6",
                    "expiretime": 1660089600,
                    "oldprice": "788.00",
                    "price": "488.00",
                    "desc": "消化内科",
                    "privice": 130000,
                    "city": 130200,
                    "disct": null,
                    "hospital_id": 1,
                    "chain_id": "1,2",
                    "items": "1,2",
                    "addtime": 1622864367,
                    "rules": "消化科专用",
                    "note": null,
                    "thumb": null,
                    "is_hot": 1
                },
                {
                    "compose_id": 10,
                    "compose_name": "女性体检豪华套餐大减价",
                    "compose_no": "TJXM202105190933041828",
                    "is_use": 2,
                    "label": "2,3",
                    "expiretime": 1665360000,
                    "oldprice": "18999.00",
                    "price": "999.00",
                    "desc": "关注女性健康,维护社会和平",
                    "privice": 110000,
                    "city": 110100,
                    "disct": 110114,
                    "hospital_id": 1,
                    "chain_id": "1,2",
                    "items": "1,2,3",
                    "addtime": 1621416784,
                    "rules": null,
                    "note": null,
                    "thumb": null,
                    "is_hot": 1
                },
                {
                    "compose_id": 10,
                    "compose_name": "女性体检豪华套餐大减价",
                    "compose_no": "TJXM202105190933041828",
                    "is_use": 2,
                    "label": "2,3",
                    "expiretime": 1665360000,
                    "oldprice": "18999.00",
                    "price": "999.00",
                    "desc": "关注女性健康,维护社会和平",
                    "privice": 110000,
                    "city": 110100,
                    "disct": 110114,
                    "hospital_id": 1,
                    "chain_id": "1,2",
                    "items": "1,2,3",
                    "addtime": 1621416784,
                    "rules": null,
                    "note": null,
                    "thumb": null,
                    "is_hot": 1
                },
                {
                    "compose_id": 10,
                    "compose_name": "女性体检豪华套餐大减价",
                    "compose_no": "TJXM202105190933041828",
                    "is_use": 2,
                    "label": "2,3",
                    "expiretime": 1665360000,
                    "oldprice": "18999.00",
                    "price": "999.00",
                    "desc": "关注女性健康,维护社会和平",
                    "privice": 110000,
                    "city": 110100,
                    "disct": 110114,
                    "hospital_id": 1,
                    "chain_id": "1,2",
                    "items": "1,2,3",
                    "addtime": 1621416784,
                    "rules": null,
                    "note": null,
                    "thumb": null,
                    "is_hot": 1
                },
                {
                    "compose_id": 11,
                    "compose_name": "内科",
                    "compose_no": "TCXM202106050339276955",
                    "is_use": 1,
                    "label": "5,6",
                    "expiretime": 1660089600,
                    "oldprice": "788.00",
                    "price": "488.00",
                    "desc": "消化内科",
                    "privice": 130000,
                    "city": 130200,
                    "disct": null,
                    "hospital_id": 1,
                    "chain_id": "1,2",
                    "items": "1,2",
                    "addtime": 1622864367,
                    "rules": "消化科专用",
                    "note": null,
                    "thumb": null,
                    "is_hot": 1
                }
            ]
        }
    },
    "getComposeDesc": {
        "code": "00000",
        "msg": "ok",
        "data": {
            "compose_id": 1,
            "compose_name": "老年人体检套餐豪华版（女）",
            "compose_no": "TJXM00001",
            "is_use": 0,
            "label": "1,2,3",
            "expiretime": 2147483647,
            "oldprice": "188.00",
            "price": "90.00",
            "desc": "保证老年人健康",
            "privice": 130000,
            "city": 130205,
            "disct": 130202005,
            "hospital_id": 1,
            "chain_id": "1",
            "items": [
                {
                    "item_id": 1,
                    "item_name": "心电图",
                    "range": "主要检查心率是否正常",
                    "why": null,
                    "note": null
                },
                {
                    "item_id": 2,
                    "item_name": "内科",
                    "range": "主要检查内分泌是否正常",
                    "why": null,
                    "note": null
                }
            ],
            "addtime": 1621384320,
            "rules": null,
            "note": null,
            "thumb": null,
            "is_hot": 1,
            "address": "河北省开平区小山街道"
        }
    },
    "getitemlist": {
        "code": "00000",
        "msg": "ok",
        "data": {
            "current_page": 1,
            "data": [
                {
                    "item_id": 7531,
                    "item_name": "脑部CT",
                    "item_no": "TJXM202111170845202362",
                    "is_use": 1,
                    "label": "1",
                    "oldprice": "11.00",
                    "price": "22.00",
                    "range": "撒旦",
                    "privice": 210000,
                    "city": 210700,
                    "disct": null,
                    "hospital_id": 51,
                    "chain_id": "40423,40424",
                    "addtime": 1637138720,
                    "why": "as的",
                    "note": "阿萨"
                },
                {
                    "item_id": 7530,
                    "item_name": "眼科",
                    "item_no": "TJXM202111170845008694",
                    "is_use": 1,
                    "label": "0",
                    "oldprice": "5432.00",
                    "price": "543.00",
                    "range": "和规范的撒",
                    "privice": null,
                    "city": 120100,
                    "disct": null,
                    "hospital_id": 51,
                    "chain_id": "40455",
                    "addtime": 1637138700,
                    "why": "割发代首",
                    "note": "割发代首"
                },
                {
                    "item_id": 7529,
                    "item_name": "心电图",
                    "item_no": "TJXM202111170840102711",
                    "is_use": 1,
                    "label": "0",
                    "oldprice": "1111.00",
                    "price": "111.00",
                    "range": "111",
                    "privice": 130000,
                    "city": 130400,
                    "disct": null,
                    "hospital_id": 51,
                    "chain_id": "40424",
                    "addtime": 1637138410,
                    "why": "111",
                    "note": "111"
                },
                {
                    "item_id": 7526,
                    "item_name": "新冠病毒1111",
                    "item_no": "TJXM202111170750111103",
                    "is_use": 1,
                    "label": "5,6",
                    "oldprice": "788.00",
                    "price": "488.00",
                    "range": "耳鼻喉",
                    "privice": 130000,
                    "city": 130200,
                    "disct": null,
                    "hospital_id": 1,
                    "chain_id": "1,2",
                    "addtime": 1637135411,
                    "why": "耳鼻喉",
                    "note": "耳鼻喉"
                },
                {
                    "item_id": 7525,
                    "item_name": "新冠病毒1111",
                    "item_no": "TJXM202111170750104966",
                    "is_use": 1,
                    "label": "5,6",
                    "oldprice": "788.00",
                    "price": "488.00",
                    "range": "耳鼻喉",
                    "privice": 130000,
                    "city": 130200,
                    "disct": null,
                    "hospital_id": 1,
                    "chain_id": "1,2",
                    "addtime": 1637135410,
                    "why": "耳鼻喉",
                    "note": "耳鼻喉"
                }
            ],
            "first_page_url": "http://121.42.230.80/api/getitemlist?page=1",
            "from": 1,
            "last_page": 9,
            "last_page_url": "http://121.42.230.80/api/getitemlist?page=9",
            "next_page_url": "http://121.42.230.80/api/getitemlist?page=2",
            "path": "http://121.42.230.80/api/getitemlist",
            "per_page": 5,
            "prev_page_url": null,
            "to": 5,
            "total": 44
        }
    },
    "addPerson": {
        "userinfo": {
            "username": "lisi",
            "user_id": 1,
            "mobile": "13000000000",
            "is_marry": true,
            "card": "123123",
            "birthday": "1990-02-09",
            "sex": "1",
            "thumb":""
        }
    }
}